<?xml version="1.0" encoding="UTF-8"?>
<symbol version="7" name="Motor_Tilt">
    <symboltype>BLOCK</symboltype>
    <timestamp>2016-4-14T16:52:14</timestamp>
    <pin polarity="Input" x="0" y="-96" name="Clk" />
    <pin polarity="Input" x="0" y="32" name="Sync_Hall" />
    <pin polarity="Input" x="0" y="96" name="Encoder_tilt(1:0)" />
    <pin polarity="Output" x="528" y="-96" name="Encoder_Register(10:0)" />
    <graph>
        <attrtext style="alignment:BCENTER;fontsize:56;fontname:Arial" attrname="SymbolName" x="264" y="-136" type="symbol" />
        <attrtext style="fontsize:24;fontname:Arial" attrname="PinName" x="72" y="-96" type="pin Clk" />
        <attrtext style="fontsize:24;fontname:Arial" attrname="PinName" x="72" y="32" type="pin Sync_Hall" />
        <attrtext style="fontsize:24;fontname:Arial" attrname="PinName" x="72" y="96" type="pin Encoder_tilt(1:0)" />
        <attrtext style="alignment:RIGHT;fontsize:24;fontname:Arial" attrname="PinName" x="456" y="-96" type="pin Encoder_Register(10:0)" />
        <rect width="64" x="0" y="84" height="24" />
        <line x2="0" y1="96" y2="96" x1="64" />
        <line x2="0" y1="32" y2="32" x1="64" />
        <line x2="0" y1="-96" y2="-96" x1="64" />
        <rect width="64" x="464" y="-108" height="24" />
        <line x2="528" y1="-96" y2="-96" x1="464" />
        <rect width="400" x="64" y="-128" height="256" />
    </graph>
</symbol>
